<svg width="100" height="96" viewBox="0 0 100 96" fill="none" xmlns="http://www.w3.org/2000/svg">
<path d="M59.8204 16.2984H61.9462L68.0056 10.2389L68.3027 7.66535C57.025 -2.29003 39.8135 -1.21457 29.8581 10.0632C27.092 13.1933 25.0876 16.9219 23.9912 20.9559C24.6649 20.6797 25.414 20.6337 26.117 20.8304L38.2358 18.8301C38.2358 18.8301 38.851 17.809 39.1732 17.8718C44.5631 11.9505 53.6354 11.26 59.8623 16.2984H59.8204Z" fill="#EA4335"/>
<path d="M76.6387 20.9557C75.2452 15.8252 72.387 11.2137 68.4115 7.69019L59.9082 16.1935C63.4987 19.1269 65.545 23.5502 65.4571 28.1868V29.6975C69.6376 29.6975 73.0273 33.0871 73.0273 37.2676C73.0273 41.4481 69.6376 44.8377 65.4571 44.8377H50.3168L48.8061 46.3693V55.4501L50.3168 56.9607H65.4571C76.329 57.0444 85.2132 48.2984 85.2968 37.4266C85.3471 30.8231 82.0955 24.6465 76.6387 20.9557Z" fill="#4285F4"/>
<path d="M35.1569 56.864H50.2971V44.7451H35.1569C34.0773 44.7451 33.0144 44.5108 32.031 44.063L29.9052 44.7242L23.8039 50.7836L23.2724 52.9095C26.6913 55.4956 30.8676 56.8849 35.1569 56.864Z" fill="#34A853"/>
<path d="M35.1563 17.5544C24.2805 17.6171 15.522 26.4845 15.5848 37.3605C15.6224 43.4325 18.4554 49.1488 23.272 52.848L32.0513 44.0685C28.2433 42.3486 26.5485 37.8627 28.2684 34.0546C29.9883 30.2465 34.4743 28.5517 38.2823 30.2716C39.9603 31.0291 41.3036 32.3765 42.0652 34.0546L50.8446 25.2751C47.1119 20.3874 41.3036 17.5293 35.1563 17.5544Z" fill="#FBBC05"/>
<path d="M6.966 91.2354C5.12367 91.2588 3.35303 90.5315 2.05944 89.2204C0.723421 87.9648 -0.0228786 86.2059 0.00053478 84.3723C-0.0214152 82.5388 0.724884 80.7813 2.05944 79.5243C3.34718 78.2 5.11928 77.4581 6.966 77.4728C8.72493 77.4493 10.4209 78.1327 11.6721 79.3692L10.3492 80.7155C9.44343 79.839 8.22593 79.359 6.966 79.3765C5.64461 79.3604 4.3759 79.9004 3.47156 80.8633C2.5321 81.7954 2.01408 83.0714 2.03603 84.3943C2.02432 85.7025 2.54235 86.9595 3.47156 87.8814C5.3856 89.7896 8.47177 89.8262 10.4312 87.9634C11.015 87.3253 11.3721 86.5117 11.4497 85.6513H6.98795V83.749H13.3008C13.3622 84.1324 13.3871 84.5201 13.3754 84.9094C13.4544 86.5322 12.8662 88.117 11.7467 89.2964C10.5014 90.5915 8.76298 91.2968 6.966 91.2354ZM21.6432 89.971C19.8829 91.6583 17.1054 91.6583 15.3451 89.971C14.4919 89.1443 14.0266 87.9985 14.0588 86.8117C14.0266 85.625 14.4934 84.4792 15.3451 83.6524C17.1069 81.9696 19.8814 81.9696 21.6432 83.6524C22.4949 84.4792 22.9617 85.625 22.9295 86.8117C22.9602 87.9999 22.4905 89.1457 21.6359 89.971H21.6432ZM16.7352 88.7301C17.6439 89.7018 19.1687 89.7515 20.1404 88.8414C20.1784 88.8048 20.2165 88.7682 20.2516 88.7301C20.7477 88.2165 21.0155 87.5258 20.995 86.8117C21.0169 86.0961 20.7491 85.4011 20.2516 84.886C19.3165 83.9114 17.7683 83.8777 16.7923 84.8128C16.7674 84.8362 16.7425 84.8611 16.7191 84.886C16.2216 85.4011 15.9538 86.0961 15.9758 86.8117C15.9567 87.5258 16.2274 88.218 16.7264 88.7301H16.7352ZM31.3232 89.971C29.5628 91.6583 26.7854 91.6583 25.025 89.971C24.1719 89.1443 23.7065 87.9985 23.7387 86.8117C23.7065 85.625 24.1733 84.4792 25.025 83.6524C26.7854 81.9652 29.5628 81.9652 31.3232 83.6524C32.1749 84.4792 32.6417 85.625 32.6095 86.8117C32.6431 87.9985 32.1763 89.1443 31.3232 89.971ZM26.4166 88.7301C27.3254 89.7018 28.8502 89.7515 29.8218 88.8414C29.8599 88.8048 29.8979 88.7682 29.933 88.7301C30.4291 88.2165 30.6969 87.5258 30.6764 86.8117C30.6984 86.0961 30.4306 85.4011 29.933 84.886C28.998 83.9114 27.4498 83.8777 26.4752 84.8128C26.4503 84.8362 26.4254 84.8611 26.402 84.886C25.9045 85.4011 25.6367 86.0961 25.6586 86.8117C25.6396 87.5258 25.9103 88.218 26.4093 88.7301H26.4166ZM37.6872 95.2054C36.7961 95.2332 35.9225 94.9551 35.2113 94.4166C34.5802 93.942 34.083 93.3118 33.7684 92.5875L35.463 91.8807C35.6474 92.3138 35.9356 92.6943 36.3029 92.9884C36.6951 93.3045 37.1882 93.4713 37.6931 93.4567C38.3399 93.4962 38.972 93.2518 39.4257 92.788C39.8735 92.248 40.0944 91.5544 40.0432 90.8549V90.2154H39.9759C39.4008 90.8973 38.5389 91.269 37.6492 91.2193C36.521 91.2222 35.4425 90.7539 34.6757 89.9257C33.8445 89.1048 33.385 87.9795 33.4041 86.8103C33.3836 85.6352 33.8431 84.5026 34.6757 83.6729C35.441 82.8417 36.5195 82.369 37.6492 82.372C38.1218 82.3705 38.5901 82.4759 39.0174 82.6763C39.3876 82.8373 39.7169 83.0788 39.9847 83.3831H40.052V82.6763H41.8958V90.5944C41.9938 91.8602 41.5665 93.1113 40.7134 94.0523C39.9013 94.8293 38.8111 95.2449 37.6872 95.2054ZM37.8219 89.4955C38.4643 89.5101 39.0803 89.2365 39.5018 88.7521C39.9598 88.2268 40.2027 87.5463 40.1778 86.8483C40.2056 86.1386 39.9642 85.4464 39.5018 84.9079C39.0803 84.4221 38.4643 84.1499 37.8219 84.1646C37.1619 84.1514 36.5283 84.4221 36.082 84.9079C35.5903 85.4274 35.3225 86.1196 35.3386 86.8337C35.324 87.5419 35.5903 88.2268 36.082 88.7375C36.5253 89.2277 37.159 89.5042 37.8219 89.4955ZM45.1751 77.9717V90.9676H43.2347V77.9717H45.1751ZM50.4987 91.2354C49.3237 91.2661 48.1896 90.8051 47.3687 89.9637C46.536 89.1296 46.0809 87.9897 46.1117 86.8117C46.0678 85.6308 46.5053 84.4821 47.3233 83.629C48.0959 82.8154 49.1759 82.3647 50.2968 82.3866C50.8075 82.3808 51.3123 82.4803 51.7835 82.6763C52.2079 82.8476 52.5942 83.1007 52.9205 83.4197C53.2015 83.6904 53.4503 83.9919 53.6639 84.3197C53.8366 84.5962 53.9829 84.8874 54.1029 85.1889L54.3034 85.6952L48.3564 88.1419C48.7252 88.9877 49.5754 89.5203 50.4973 89.4808C51.3884 89.4838 52.2152 89.017 52.6762 88.2546L54.1629 89.2584C53.7836 89.8018 53.2977 90.2624 52.7347 90.612C52.0674 91.0334 51.2889 91.25 50.4987 91.2354ZM48.0154 86.6771L51.9708 85.0338C51.8494 84.744 51.6313 84.5055 51.3533 84.3577C51.0431 84.1821 50.6919 84.0929 50.3348 84.0972C49.7305 84.1133 49.1554 84.3665 48.7369 84.804C48.2291 85.2899 47.9642 85.9762 48.0154 86.6771Z" fill="#5F6368"/>
<path d="M64.4691 91.2358C61.0859 91.2944 58.2968 88.5989 58.2382 85.2157C58.2368 85.1337 58.2368 85.0503 58.2397 84.9684C58.1607 81.5852 60.84 78.78 64.2218 78.7009C64.3038 78.6995 64.3872 78.6995 64.4691 78.6995C66.1607 78.6468 67.785 79.3697 68.8781 80.6618L67.807 81.7022C67.0036 80.6911 65.7656 80.1248 64.4764 80.1774C63.2399 80.1496 62.0444 80.6281 61.1678 81.5003C60.2562 82.4178 59.7689 83.6733 59.8216 84.9655C59.7674 86.2576 60.2562 87.5131 61.1678 88.4306C62.0444 89.3042 63.2399 89.7813 64.4764 89.7535C65.9164 89.7696 67.2846 89.1286 68.1933 88.0136L69.2645 89.0847C68.704 89.7549 68.0001 90.2905 67.2056 90.6534C66.348 91.0515 65.413 91.2505 64.4691 91.2358Z" fill="#5F6368"/>
<path d="M72.1414 90.9683H70.602V78.9602H72.1414V90.9683Z" fill="#5F6368"/>
<path d="M74.6546 83.7408C76.333 82.074 79.0431 82.074 80.7216 83.7408C81.5176 84.5822 81.9464 85.706 81.9113 86.8635C81.9464 88.021 81.5176 89.1449 80.7216 89.9863C79.0431 91.653 76.333 91.653 74.6546 89.9863C73.8585 89.1449 73.4297 88.021 73.4649 86.8635C73.4297 85.706 73.857 84.5822 74.6546 83.7408ZM75.7989 89.0205C76.7837 90.0609 78.4256 90.1063 79.4675 89.1214C79.5026 89.0892 79.5363 89.0541 79.5685 89.0205C80.1114 88.4381 80.3982 87.661 80.3645 86.865C80.3996 86.0689 80.1128 85.2919 79.5685 84.7095C78.5836 83.6691 76.9418 83.6237 75.8999 84.6085C75.8647 84.6407 75.8311 84.6758 75.7989 84.7095C75.256 85.2919 74.9692 86.0689 75.0028 86.865C74.9721 87.6596 75.2618 88.4337 75.8062 89.0132L75.7989 89.0205Z" fill="#5F6368"/>
<path d="M90.4385 90.9681H88.9518V89.8311H88.9079C88.643 90.2627 88.2684 90.6169 87.8221 90.8568C87.3597 91.1246 86.8329 91.2666 86.2973 91.2651C85.4163 91.3251 84.5574 90.9798 83.9633 90.3286C83.3999 89.6159 83.1174 88.7219 83.1672 87.8161V82.7603H84.7066V87.5336C84.7066 89.0657 85.3827 89.8311 86.7363 89.8311C87.3465 89.8501 87.9274 89.5735 88.2977 89.0877C88.6971 88.5828 88.9093 87.9551 88.9005 87.3112V82.7603H90.44V90.9681H90.4385Z" fill="#5F6368"/>
<path d="M95.6656 91.2361C94.6091 91.239 93.6038 90.781 92.9145 89.9791C92.1434 89.1274 91.7307 88.0123 91.7614 86.8636C91.7307 85.7149 92.1434 84.5999 92.9145 83.7482C93.6038 82.9478 94.6091 82.4883 95.6656 82.4912C96.2509 82.4824 96.829 82.62 97.3455 82.8922C97.8006 83.1204 98.1855 83.4673 98.4606 83.896H98.5279L98.4606 82.759V78.9602H100V90.9683H98.5132V89.8313H98.4459C98.1708 90.26 97.786 90.6068 97.3309 90.8351C96.8187 91.1044 96.2465 91.2434 95.6656 91.2361ZM95.9188 89.8313C96.6226 89.8415 97.2972 89.5488 97.7699 89.0279C98.2923 88.4323 98.5601 87.6553 98.5132 86.8636C98.5601 86.0734 98.2923 85.2949 97.7699 84.6994C96.8363 83.6721 95.2471 83.5975 94.2198 84.5326C94.1613 84.5852 94.1057 84.6423 94.053 84.6994C93.5291 85.2906 93.2613 86.0661 93.3096 86.8549C93.2613 87.6436 93.5291 88.4192 94.053 89.0103C94.5271 89.543 95.2076 89.8415 95.9188 89.8313Z" fill="#5F6368"/>
</svg>
